University of Illinois - Urbana-Champaign
…
University of Illinois - Urbana-Champaign

1 Illinois purchases (51 orders)

load(url('https://github.com/cyouh95/recruiting-chapter/raw/master/data/145637_orders.RData'))

IL_orders

## # A tibble: 51 x 25
##    univ_id po_num   order_num order_title                 order_cost num_runs num_students date_start date_end   hs_grad_class  state_name cbsa_name race_ethnicity                                                                                                                                                                                                                       sat_score_min sat_score_max sat_score_old_min sat_score_old_max psat_score_min psat_score_max psat_score_old_min psat_score_old_max gpa_high gpa_low rank_high     rank_low    
##    <chr>   <chr>    <chr>     <chr>                            <dbl>    <dbl>        <dbl> <date>     <date>     <chr>          <chr>      <chr>     <chr>                                                                                                                                                                                                                                        <dbl>         <dbl>             <dbl>             <dbl>          <dbl>          <dbl>              <dbl>              <dbl> <chr>    <chr>   <chr>         <chr>       
##  1 145637  P1558959 327699    IL Lower Range August 2017      4611.        NA        10723 2017-10-12 NA         2018|2019|2020 Illinois   <NA>      Asian (including Indian subcontinent and Philippines origin)|Other|I do not wish to respond to race|No, not of Hispanic, Latino, or Spanish origin|White (including Middle Eastern origin)|Native Hawaiian or Other Pacific Islander          1160          1270              1090              1200           1160           1270                109                120 A+       B-      Highest tenth Second fifth
##  2 145637  P1558959 327649    IL Middle 50% August 2017       1762.        NA         4097 2017-10-12 NA         2018|2019|2020 Illinois   <NA>      Asian (including Indian subcontinent and Philippines origin)|Other|I do not wish to respond to race|No, not of Hispanic, Latino, or Spanish origin|White (including Middle Eastern origin)|Native Hawaiian or Other Pacific Islander          1280          1440              1210              1390           1280           1440                121                139 A+       B-      Highest tenth Second fifth
##  3 145637  P1558959 327696    IL 1450+ August 2017             241.        NA          561 2017-10-12 NA         2018|2019|2020 Illinois   <NA>      Asian (including Indian subcontinent and Philippines origin)|Other|I do not wish to respond to race|No, not of Hispanic, Latino, or Spanish origin|White (including Middle Eastern origin)|Native Hawaiian or Other Pacific Islander          1450          1600              1400              1600           1450           1520                140                149 A+       B-      Highest tenth Second fifth
##  4 145637  P1558959 327681    URM Lower Range August 2017     2859.        NA         6648 2017-10-12 NA         2018|2019|2020 Illinois   <NA>      Black or African American|American Indian or Alaska Native|Other Hispanic or Latino|Puerto Rican|Mexican|Hispanic or Latino (including Spanish origin)|Cuban                                                                                  1020          1190               940              1120           1020           1190                 94                112 A+       B-      Highest tenth Second fifth
##  5 145637  P1558959 327700    PAP Traditional August 2017      110.        NA          255 2017-10-12 NA         2018|2019|2020 Illinois   <NA>      Black or African American|American Indian or Alaska Native|Other Hispanic or Latino|Puerto Rican|Mexican|Hispanic or Latino (including Spanish origin)|Cuban                                                                                  1200          1380              1130              1320           1200           1380                113                132 A+       B-      Highest tenth Second fifth
##  6 145637  P1558959 327630    PAP Honors August 2017            11.6       NA           27 2017-10-12 NA         2018|2019|2020 Illinois   <NA>      Black or African American|American Indian or Alaska Native|Other Hispanic or Latino|Puerto Rican|Mexican|Hispanic or Latino (including Spanish origin)|Cuban                                                                                  1390          1600              1330              1600           1390           1520                133                149 A+       B-      Highest tenth Second fifth
##  7 145637  P1558959 371076    IL 1160-1270 Feb 2018           4849.        NA        11277 2018-02-06 NA         2019|2021|2020 Illinois   <NA>      Asian (including Indian subcontinent and Philippines origin)|Other|I do not wish to respond to race|No, not of Hispanic, Latino, or Spanish origin|White (including Middle Eastern origin)|Native Hawaiian or Other Pacific Islander          1160          1270              1090              1200           1160           1270                109                120 A+       B-      Highest tenth Second fifth
##  8 145637  P1558959 371072    IL 1280-1440 Feb 2018           1819.        NA         4230 2018-02-06 NA         2019|2021|2020 Illinois   <NA>      Asian (including Indian subcontinent and Philippines origin)|Other|I do not wish to respond to race|No, not of Hispanic, Latino, or Spanish origin|White (including Middle Eastern origin)|Native Hawaiian or Other Pacific Islander          1280          1440              1210              1390           1280           1440                121                139 A+       B-      Highest tenth Second fifth
##  9 145637  P1558959 371132    IL 1450+ Feb 2018                218.        NA          506 2018-02-06 NA         2019|2021|2020 Illinois   <NA>      Asian (including Indian subcontinent and Philippines origin)|Other|I do not wish to respond to race|No, not of Hispanic, Latino, or Spanish origin|White (including Middle Eastern origin)|Native Hawaiian or Other Pacific Islander          1450          1600              1400              1600           1450           1520                140                149 A+       B-      Highest tenth Second fifth
## 10 145637  P1558959 371079    URM 1020-1190 Feb 2018          2669.        NA         6207 2018-02-06 NA         2019|2021|2020 Illinois   <NA>      Black or African American|American Indian or Alaska Native|Other Hispanic or Latino|Puerto Rican|Mexican|Hispanic or Latino (including Spanish origin)|Cuban                                                                                  1020          1190               940              1120           1020           1190                 94                112 A+       B-      Highest tenth Second fifth
## #  with 41 more rows
…
This table below shows the number of zip codes purchased by descending order

Grouped by zip code and summarized to get a count of the number of students purchased within each zip code

Merged in census zip-code level data to show demographic data associated with each zip code

OOS_msa_zip %>%
  dplyr::select(zip_code, n_per_grp, median_household_income, starts_with("pct"))

## # A tibble: 2,427 x 11
##    zip_code n_per_grp median_household_income pct_black pct_white pct_asian pct_latinx pct_nat_am pct_nat_hi pct_two_races pct_other
##    <chr>        <int>                   <dbl>     <dbl>     <dbl>     <dbl>      <dbl>      <dbl>      <dbl>         <dbl>     <dbl>
##  1 77494          565                  137231    0.0808     0.523    0.172      0.197    0.00743     0              0.0181  0.00162 
##  2 77479          485                  133200    0.0715     0.397    0.421      0.0859   0.000456    0              0.0218  0.00202 
##  3 94582          331                  140210    0.0258     0.304    0.554      0.0590   0.000865    0.00457        0.0507  0.00131 
##  4 77382          318                  136957    0.0187     0.721    0.0588     0.185    0           0.00181        0.0123  0.00267 
##  5 30024          284                  102181    0.0802     0.582    0.233      0.0774   0.00230     0              0.0208  0.00510 
##  6 75025          281                  109257    0.0732     0.552    0.281      0.0707   0.00142     0              0.0187  0.00263 
##  7 75013          280                  122010    0.0661     0.613    0.227      0.0594   0.00242     0              0.0270  0.00522 
##  8 75035          272                  118550    0.0900     0.592    0.181      0.105    0.00308     0.00153        0.0256  0.00170 
##  9 76092          271                  187670    0.0329     0.800    0.0829     0.0611   0.00377     0              0.0189  0.000617
## 10 75019          235                  114642    0.0439     0.605    0.213      0.111    0.00348     0              0.0219  0.00120 
## #  with 2,417 more rows
…
